id_str,created_at,text
1045916849601302528,2018-09-29 06:03:03,Free @PacktPub ebook of the day: Mastering CSS - https://t.co/plr4ib8Vnc
1045555973195276288,2018-09-28 06:09:04,"@RobHimself1982 cool, always open to more bots on PyBites Slack :)check out our new /books slash command ..."
1045555649885741056,2018-09-28 06:07:47,Day 13: #100DaysOfCode progress: today I worked on Text-based games (and classes) / D1 (lectures)… https://t.co/6cTVOrqhPG
1045554462381637634,2018-09-28 06:03:03,Free @PacktPub ebook of the day: Modern R Programming Cookbook - https://t.co/plr4ib8Vnc
1045388568502374406,2018-09-27 19:03:51,RT @jmwatt3: 1/ I encourage anyone who is interested in learning Python to give @TalkPython a try. For me it has the best mix of approachab…
1045388434523738112,2018-09-27 19:03:19,RT @AndrewKonsta: @EMPtotheAtl @pybites @TalkPython I am really enjoying it. I also signed up for https://t.co/cL5ICCpf8Y offering that had…
1045387482383216641,2018-09-27 18:59:32,RT @python_tip: Back to school? Or just want to take Python more seriously?@pybites offers 20-60 minute challenges you can code and verif…
1045387376527396864,2018-09-27 18:59:07,@RobHimself1982 what command? :)
1045198162334556161,2018-09-27 06:27:15,"@jmwatt3 @mariatta @_juliansequeira awesome, thanks!"
1045197967932690434,2018-09-27 06:26:29,"@jmwatt3 @treehouse @michaeldsimmons great read, signed up for webinar :)"
1045197679838601216,2018-09-27 06:25:20,"RT @pycon: The PyCon 2019 Call for Proposals is open! We are accepting proposals for Talks, Tutorials, Posters, Education Summit, and the P…"
1045192559952351232,2018-09-27 06:04:59,RT @vipinreyo: I just cracked Bite of Py 78. Find programmers with common languages - on behalf of @pybites I Challenge You!  https://t.co/…
1045192548208332800,2018-09-27 06:04:56,"RT @python_tip: When web-scraping with Python, you can use cookies from your Firefox/Chrome browser:https://t.co/IbouMJVl4u https://t.co/…"
1045192531129053184,2018-09-27 06:04:52,RT @vipinreyo: I achieved the PyBites Ninja Green Belt by completing Code Challenges at https://t.co/CtX6fCAOyy - on behalf of @pybites I C…
1045192504688218112,2018-09-27 06:04:46,RT @TalkPython: Are you ready for *the* definitive course on Python's async techniques and APIs from the new async / await to threads and e…
1045192478138281985,2018-09-27 06:04:40,"RT @TalkPython: Did you know we're running a launch special for our latest course, Async Techniques and Examples in Python. If you get it w…"
1045192460853563392,2018-09-27 06:04:36,RT @vipinreyo: I just cracked Bite of Py 81. Filter and order tweets by polarity values - on behalf of @pybites I Challenge You!  https://t…
1045192444546035712,2018-09-27 06:04:32,RT @tommyenglert: I hate python puzzles. I love python puzzles. ¯\_(ツ)_/¯I just cracked Bite of Py 105. Slice and dice - on behalf of @py…
1045192407460048896,2018-09-27 06:04:23,RT @a1ex_ve9an: I achieved the PyBites Ninja White Belt by completing Code Challenges at https://t.co/chzwlph802  - on behalf of @pybites I…
1045192073513594880,2018-09-27 06:03:03,Free @PacktPub ebook of the day: Architecting Modern Java EE Applications - https://t.co/plr4ib8Vnc
1044829685119680513,2018-09-26 06:03:03,Free @PacktPub ebook of the day: Augmented Reality for Developers - https://t.co/plr4ibqwLM
1044826574326050816,2018-09-26 05:50:41,"RT @treehouse: Read “5-Hour Rule: If you’re not spending 5 hours per week learning, you’re being irresponsible” by @michaeldsimmons and imp…"
1044826548069642240,2018-09-26 05:50:35,"@jmwatt3 @treehouse @michaeldsimmons Thanks, totally committed to this!"
1044500183810285569,2018-09-25 08:13:44,"Really enjoyed learning #pandas some time ago, can't wait to get back into it ...Analyzing Brexit data with Panda… https://t.co/grqcEIs9U0"
1044499804917813249,2018-09-25 08:12:14,Inspiring read: Hackers &amp; Painters: Big Ideas from the Computer Age - https://t.co/xBwo9XEuYw by @mschilling #books #programming
1044498841473634304,2018-09-25 08:08:24,@mschilling Python! :)
1044495860120395776,2018-09-25 07:56:33,How I got fired up about #programming: https://t.co/fITzln3eQM #excel #vba
1044472044539322368,2018-09-25 06:21:55,"@cclai999 @pybites @TalkPython Keep it up, 60% done!"
1044472000666894338,2018-09-25 06:21:44,RT @rahgoki: Day 26: Additional error handling using the movies csv and urlretreive.  https://t.co/9nOL8fGtthhttps://t.co/LU1KIjQLvx#…
1044471987937185792,2018-09-25 06:21:41,RT @cclai999: Day 61: #100DaysOfCode progress: today I worked on Using the Github API with Python / D1 (lectures) https://t.co/AuNZCZI0jE #…
1044471948590436352,2018-09-25 06:21:32,RT @connorjcantrell: 30 challenges complete on @pybites! I am now searching for fellow coders who want to join the @pybites #100DaysOfCode…
1044471925274292224,2018-09-25 06:21:26,RT @connorjcantrell: Enumerate is great.This challenge opened my eyes to the power of iterating over a tuple. Just cracked Bite of Py 66. C…
1044471903447134208,2018-09-25 06:21:21,RT @connorjcantrell: I just cracked Bite of Py 19. Write a simple property - on behalf of @pybites I Challenge You!  https://t.co/hx5xDIdwS…
1044471890314743808,2018-09-25 06:21:18,"RT @python_tip: One of my favorite things in Python. Testing if a string A contains a substring B is just ""B in A"", for example,&gt;&gt;&gt; x = '…"
1044471874913210368,2018-09-25 06:21:14,RT @pybites: PyBites &gt;&gt;&gt; #NBA Challenge Review | Pomodoro Challenge | Survey | Career Development | News Digest - https://t.co/hgqynjdspD #…
1044471854575030272,2018-09-25 06:21:10,RT @connorjcantrell: Timezone conversions! I just cracked Bite of Py 83. At what time does PyBites live? - on behalf of @pybites I Challeng…
1044471840322867200,2018-09-25 06:21:06,RT @vipinreyo: I just cracked Bite of Py 73. Organize a meeting between timezones (pytz) - on behalf of @pybites I Challenge You!  https://…
1044471825210757122,2018-09-25 06:21:03,"RT @jmwatt3: My football team may have come up just short but I still ""won"" tonight by doing some Python studying :-). I just cracked Bite…"
1044471811860299776,2018-09-25 06:20:59,"RT @pybites: At PyBites we are passionate about Python, coding, our community and ... how to advance your career. Check out our second arti…"
1044471774262579203,2018-09-25 06:20:50,RT @pybites: Check out our review of last week's #Python Code Challenge 51 - Analyse NBA Data with SQL/sqlite3 - https://t.co/tGDtcH4C2D -…
1044471757086871552,2018-09-25 06:20:46,RT @pybites: We challenge you! We published a new #Python #CodeChallengePCC52 - Create your own Pomodoro Timer https://t.co/wEpvaJNtU7…
1044467297300078592,2018-09-25 06:03:03,Free @PacktPub ebook of the day: Kali Linux - An Ethical Hacker's Cookbook - https://t.co/plr4ib8Vnc
1044104908243329024,2018-09-24 06:03:03,Free @PacktPub ebook of the day: Industrial Cybersecurity - https://t.co/plr4ib8Vnc
1043881073531396096,2018-09-23 15:13:36,RT @clamytoe: I just cracked Bite of Py 131. Screen scraper - on behalf of @pybites I Challenge You!  https://t.co/a3xQzPOxOY #Python #Code…
1043881012810448896,2018-09-23 15:13:22,RT @fisheranalytics: I just cracked Bite of Py 21. Query a nested data structure - on behalf of @pybites I Challenge You!  https://t.co/pjJ…
1043880997740326917,2018-09-23 15:13:18,RT @1st1: 🔥 Big news! 🔥asyncio documentation has been rewritten from scratch! Read the new version here: https://t.co/Hoa08x3Y3Z.Huge t…
1043880966270451719,2018-09-23 15:13:11,"RT @python_tip: Use ""\N"" escape sequence to print #unicode symbols by name.&gt;&gt;&gt; print('\N{smiling face with sunglasses}’)😎#python"
1043880950529224704,2018-09-23 15:13:07,RT @realpython: 🐍📰 Absolute vs Relative Imports in Pythonhttps://t.co/rK58H3hcIA
1043880923077517312,2018-09-23 15:13:01,RT @connorjcantrell: I just cracked Bite of Py 38. Using ElementTree to parse XML - on behalf of @pybites I Challenge You!  https://t.co/BT…
1043880908129030144,2018-09-23 15:12:57,RT @jmwatt3: Managed to get a little of studying done before work :-). I just cracked Bite of Py 29. Martin's IQ test - on behalf of @pybit…
1043880895869063168,2018-09-23 15:12:54,RT @vipinreyo: I just cracked Bite of Py 71. Keep state in a class   make its instance callable - on behalf of @pybites I Challenge You!  h…
1043880870971617280,2018-09-23 15:12:48,RT @nehal_26: Day 46: #100DaysOfCode progress: today I worked on Web Scraping with BeautifulSoup4 / D1 (lectures) https://t.co/A0TSeROQ6q #…
1043880844698537984,2018-09-23 15:12:42,RT @TalkPython: It's all about https://t.co/1ba1f96kAa with @nedbat on episode 178 of @talkpython. Check it out now at https://t.co/UBvtnQw…
1043880827862609920,2018-09-23 15:12:38,RT @connorjcantrell: I just cracked Bite of Py 68. Remove punctuation characters from a string - on behalf of @pybites I Challenge You!  ht…
1043880776381681664,2018-09-23 15:12:26,RT @jmwatt3: Friday night and the kids are sound asleep...time for some Python studying! I just cracked Bite of Py 5. Parse a list of names…
1043880759935868929,2018-09-23 15:12:22,RT @pythonbytes: It's @pythonbytes episode #96: Python Language Summit 2018 with @brianokken and @mkennedy. Get it while it's fresh --&gt; htt…
1043880749181673473,2018-09-23 15:12:19,RT @fisheranalytics: I just cracked Bite of Py 89. Playing with lists and dicts - on behalf of @pybites I Challenge You!  https://t.co/veQi…
1043880733620801536,2018-09-23 15:12:15,RT @jmwatt3: What's better than Friday night coding...Saturday night coding :-) I just cracked Bite of Py 8. Rotate string characters - on…
1043880722191273984,2018-09-23 15:12:13,RT @python_tip: With 'tqdm' you can add a progress meter to any iterable object (see examples in @kondrej's short video):https://t.co/mS1…
1043880707083423746,2018-09-23 15:12:09,RT @python_tip: Sort objects of the same class that don’t natively support comparison operations using operator.attrgetterhttps://t.co/2V…
1043880658756603904,2018-09-23 15:11:58,"RT @pybites: PyBites Twitter Digest - Issue 30, 2018 is up - enjoy! https://t.co/bX7a4Kvlv9#python #news #pycon #testing #programming"
1043742521866604544,2018-09-23 06:03:03,Free @PacktPub ebook of the day: Pandas Cookbook - https://t.co/plr4ib8Vnc
1043380132763774976,2018-09-22 06:03:03,Free @PacktPub ebook of the day: Progressive Web Apps with React - https://t.co/plr4ib8Vnc
1043151393052418054,2018-09-21 14:54:07,"RT @dtizzlenizzle: Day 3: #100DaysOfCode progress: today I finalized my Raspberry Pi dog bark notification, using Datetimes to update the t…"
1043017743585308672,2018-09-21 06:03:03,Free @PacktPub ebook of the day: Learning Concurrency in Python - https://t.co/plr4ib8Vnc
1042655357393264640,2018-09-20 06:03:03,Free @PacktPub ebook of the day: Mastering PHP 7 - https://t.co/plr4ib8Vnc
1042292969619902466,2018-09-19 06:03:03,Free @PacktPub ebook of the day: ROS Robotics Projects - https://t.co/plr4ib8Vnc
1042030106141761537,2018-09-18 12:38:31,"RT @jmwatt3: Alright - my fellow KPMG Data Teamers....don't let me down, lol :-) I got PyBites - Bites of Py Enterprise on @Gumroad: https:…"
1042029973488459781,2018-09-18 12:38:00,RT @MikeHerman: Asynchronous Tasks with Flask and Redis Queue &gt;&gt; https://t.co/Ei9tjUCIEG #python #webdev https://t.co/WAbeiZp9E4
1042029931952267264,2018-09-18 12:37:50,RT @pybites: Instructional Video: How to Fork and Submit a PR to our PyBites Code Challenges https://t.co/BSTfVMXFCE via @YouTube#Python #…
1042029915707715584,2018-09-18 12:37:46,"RT @AutomationPanda: ""Python Testing with pytest"" by @brianokken is THE book on @pytestdotorg. I loved reading it and strongly recommend it…"
1042029899291262977,2018-09-18 12:37:42,"RT @pybites: Functions are first-class objects with attributes in #Python&gt;&gt;&gt; def calculate_bmi(weight, length): ... &gt;&gt;&gt; calculate_bmi._…"
1042029883533287425,2018-09-18 12:37:38,RT @tsitsimunikwa97: I just cracked Bite of Py 109. Workout dict lookups and raising an exception - on behalf of @pybites I Challenge You!…
1042029871449423874,2018-09-18 12:37:35,RT @pybites: I just cracked Bite of Py 132. Find the word with the most vowels - on behalf of @pybites I Challenge You!  https://t.co/qzcvg…
1042029818798383109,2018-09-18 12:37:23,RT @clamytoe: I just cracked Bite of Py 133. Convert an Amazon URL into an affiliation link - on behalf of @pybites I Challenge You!  https…
1042029780475039747,2018-09-18 12:37:14,"RT @pybites: Enough pytest to be Dangerous, 10 Things I Learned Writing Tests for 100 Python (Bites of Py) Exercises https://t.co/YeIgMNfw0D"
1042029762124898306,2018-09-18 12:37:09,RT @pybites: Love #Python requests&gt;&gt;&gt; import urllib.request as req&gt;&gt;&gt; u = 'https://t.co/RvWEPBbUAi'&gt;&gt;&gt; req.urlopen(u).read()...403&gt;&gt;&gt;…
1042029746211758081,2018-09-18 12:37:06,RT @pybites: Code more #Python with PyBites!Code Challenge 51 (PCC 51) Overview https://t.co/nBmzKIMceb via @YouTube
1041930582261825536,2018-09-18 06:03:03,Free @PacktPub ebook of the day: Python Web Scraping - Second Edition - https://t.co/plr4ib8Vnc
1041686943304757248,2018-09-17 13:54:55,"@_juliansequeira @niilz_stroh @pybites You learn most by teaching something to somebody else, so our pleasure"
1041684331402604544,2018-09-17 13:44:32,RT @pybites: Come code with us: New #Python #CodeChallenge!Code Challenge 51 - Analyse NBA Data with SQL/sqlite3https://t.co/FIKHZqeMzF…
1041681782591115265,2018-09-17 13:34:25,"RT @pybites: Two ways to strip punctuation from a string in #Python&gt;&gt;&gt; from string import punctuation as punc&gt;&gt;&gt; s = ""punc;tu.ation!""&gt;&gt;…"
1041568191065911298,2018-09-17 06:03:02,Free @PacktPub ebook of the day: Mastering Active Directory - https://t.co/plr4ib8Vnc
1041402024691200002,2018-09-16 19:02:45,@niilz_stroh @pybites @_juliansequeira Glad you like it. We thought that is what PRs are for no? - to do a bit of code review! :)
1041400549197930496,2018-09-16 18:56:53,RT @niilz_stroh: sometimes I am a bit slow. Especially when it comes to using git.But I just realized after the second code-challenge that…
1041400513265319942,2018-09-16 18:56:45,RT @jmwatt3: Check out this new wrinkle rolled by mis amigos @pybites re: enterprise feature - Feature Overview: PyBites CodeChallenges Ent…
1041316972976398341,2018-09-16 13:24:47,"RT @brettsky: Out of the top 360 packages, 357 support Python 3 (99%) https://t.co/x3w68GH5Jm"
1041316953443459072,2018-09-16 13:24:43,RT @TalkPython: Did you know that Flask just released its 1.0 version? That's the topic of this week's @talkpython with @davidism #177: Fla…
1041316938104950784,2018-09-16 13:24:39,RT @pythonbytes: Something funny is going on with this app. It's time to unleash the py-spy! It's episode 95 of @pythonbytes with @brianokk…
1041316926700617728,2018-09-16 13:24:36,RT @niilz_stroh: It has been a bit longer than I was hoping (there is just so much learning content out there in the wild) but I finally go…
1041316911735287813,2018-09-16 13:24:33,RT @_juliansequeira: Nice one! A great #template for generating a basic #Python project structure! @pybites https://t.co/zaxboOMGwN
1041316896312836097,2018-09-16 13:24:29,RT @kennethreitz: The best way to understand a tool/concept is to write a Python library for it!
1041316837764591616,2018-09-16 13:24:15,RT @pybites: Supplement your weekend reading with some interesting articles and resources featured in our PyBites Twitter Digest: Check o…
1041205806534844416,2018-09-16 06:03:03,Free @PacktPub ebook of the day: Mastering Kubernetes - https://t.co/plr4ib8Vnc
1040911427668791297,2018-09-15 10:33:18,"@python_tip Love this one, use it often"
1040911367253975040,2018-09-15 10:33:03,"RT @python_tip: dict(zip(list1, list2)) creates a dictionary from two lists.Example:&gt;&gt;&gt; keys = ['red', 'green', 'blue']&gt;&gt;&gt; values = ['#…"
1040911348094443520,2018-09-15 10:32:59,RT @fisheranalytics: I just cracked Bite of Py 128. Work with datetime's strptime and strftime - on behalf of @pybites I Challenge You!  ht…
1040911328720945152,2018-09-15 10:32:54,RT @panikentwit: I just cracked Bite of Py 105. Slice and dice - on behalf of @pybites I Challenge You!  https://t.co/8W498xIbk1 #Python #C…
1040911299549519873,2018-09-15 10:32:47,"RT @pybites: Quote of the day: “A 10x engineer isn’t someone who is 10x better than those around them, but someone who makes those around t…"
1040911225541091328,2018-09-15 10:32:30,RT @clamytoe: Day 044: #100DaysOfCode Deviated even more from the course and wrote a quick little script to extract the audio tracks from m…
